{
  "project_info": {
    "project_number": "180251653766",
    "firebase_url": "https://notepad-ec475-default-rtdb.asia-southeast1.firebasedatabase.app",
    "project_id": "notepad-ec475",
    "storage_bucket": "notepad-ec475.appspot.com"
  },
  "client": [
    {
      "client_info": {
        "mobilesdk_app_id": "1:180251653766:android:37843c7e8ea3a71fadc307",
        "android_client_info": {
          "package_name": "com.appsofsoumyadeep.notepad"
        }
      },
      "oauth_client": [
        {
          "client_id": "180251653766-ria51scil3to5rug1q00l53i09d69p49.apps.googleusercontent.com",
          "client_type": 3
        }
      ],
      "api_key": [
        {
          "current_key": "AIzaSyC1PsvNWLt3slz5ligrMsosXaVYyuHF_Fc"
        }
      ],
      "services": {
        "appinvite_service": {
          "other_platform_oauth_client": [
            {
              "client_id": "180251653766-ria51scil3to5rug1q00l53i09d69p49.apps.googleusercontent.com",
              "client_type": 3
            }
          ]
        }
      }
    }
  ],
  "configuration_version": "1"
}